[
  {
    "label": "Lock screen",
    "exec": "gtklock",
    "icon": "system-lock-screen"
  },
  {
    "label": "Suspend",
    "exec": "suspend.sh",
    "icon": "system-suspend"
  },
  {
    "label": "Logout",
    "exec": "logout.sh",
    "icon": "system-log-out"
  },
  {
    "label": "Reboot",
    "exec": "sudo /bin/reboot",
    "icon": "system-reboot"
  },
  {
    "label": "Shutdown",
    "exec": "sudo /bin/poweroff",
    "icon": "system-shutdown"
  }
]
